296765 229316
526184 3028
265480 857729
765893 331373
74720 461254
345931 563407
602620 327625
366479 753541
51080 111402
61011 912149
880040 644931
476575 288681
942555 572190
268247 121210
692956 378826
77083 281299
120671 670522
296974 161623
953376 47894
589456 648148
11011 354961
330222 576331
620933 287624
850771 3786
797463 782939
89654 963114
660258 980376
565413 804118
223256 282817
10031 182044
114683 281536
312565 316828
673248 733346
648903 402147
961164 466485
41845 530409
526396 534659
270256 690684
981749 726167
855602 430400
94883 491480
483457 237705
690197 587700
590793 385122
819664 840754
238839 416973
29901 48788
398255 94239
453321 549238
991063 271664
636053 93950
646721 31668
626360 981487
340159 282588
564735 478198
314010 173583
726362 606360
274395 662579
733018 689074
836930 502054
339011 260802
438864 128020
269975 391692
26331 369886
69618 746105
944626 268246
105961 83398
904549 65686
731334 449549
287119 680417
2014 967994
898424 855761
505828 923653
37352 506006
255414 80813
261188 242721
303450 216420
312303 540161
70239 22157
111133 24961
721769 312116
187973 70429
712582 513288
326152 768368
90936 541985
524004 158923
177327 718857
61166 652283
635028 269932
121090 320725
846902 294343
685356 931302
932113 183106
768151 324609
290768 882389
127313 246385
37586 810621
535693 766849
731472 686363
591067 239494
708503 337447
612309 500764
450941 93845
45158 280720
168725 610378
4757 1828
795999 919189
425843 313317
668797 474014
439902 59465
523445 834906
948126 196222
520160 324441
679806 447888
215089 989895
772847 304848
792357 90332
493708 816372
99467 829580
787546 296493
468545 239301
621697 386820
160428 184244
998224 272179
382972 857782
243597 80939
984152 951293
925446 861012
542200 806951
415324 79948
897230 597028
579472 828537
818400 308575
790258 505139
700755 530890
63188 750083
301280 535861
974096 596896
256701 155043
570263 364864
817917 686015
218863 247836
882209 681580
268074 644174
285624 263965
823707 448666
677970 271716
107125 538777
321774 249801
366441 159686
737510 440641
326982 153286
737047 571501
686780 955879
503014 2759
122954 852689
360098 901231
692136 405009
2487 683304
33395 266212
491301 29585
442802 64550
654600 281729
337937 870367
227048 456506
447250 404215
847605 334496
415267 877178
925874 168648
33955 803714
784968 876689
675291 622240
446246 299255
236733 90455
384335 944816
326619 286091
251047 858575
286556 569159
841145 44603
502955 941817
660372 691012
440251 354337
813140 730973
219163 626941
798678 567629
480986 889015
365883 213760
36161 814207
495752 939516
863048 83223
11880 991599
9586 116588
516007 108327
686581 756929
558099 673284
571056 412119
627761 941986
946412 312583
696869 241362
527017 574295
683851 661668
910752 36629
18143 41937
724 832653
668781 873141
254037 237398
792118 382854
45660 530343
322659 991674
421822 204054
188311 270936
32435 897754
526094 316507
199485 232166
954162 2675
55460 600147
205708 550082
926641 817119
666019 408768
